…
The median number of sports balls in a dumpster in 2017 is 8.

## Problem 2

Read & clean data

``` r
subway = read_csv("./NYC_Transit_Subway_Entrance_And_Exit_Data.csv",col_types = '-ccnnccccccccccccf-f--l---------') %>% 
  janitor::clean_names() %>% 
  rename(ADA_compliance=ada)
  mutate (subway, entry=as.logical(ifelse(pull(subway, entry)=="YES",1, 0))) 
```

    ## # A tibble: 1,868 x 19
    ##    line  station_name station_latitude station_longitu~ route1 route2 route3
    ##    <chr> <chr>                   <dbl>            <dbl> <chr>  <chr>  <chr> 
    ##  1 4 Av~ 25th St                  40.7            -74.0 R      <NA>   <NA>  
    ##  2 4 Av~ 25th St                  40.7            -74.0 R      <NA>   <NA>  
    ##  3 4 Av~ 36th St                  40.7            -74.0 N      R      <NA>  
    ##  4 4 Av~ 36th St                  40.7            -74.0 N      R      <NA>  
    ##  5 4 Av~ 36th St                  40.7            -74.0 N      R      <NA>  
    ##  6 4 Av~ 45th St                  40.6            -74.0 R      <NA>   <NA>  
    ##  7 4 Av~ 45th St                  40.6            -74.0 R      <NA>   <NA>  
    ##  8 4 Av~ 45th St                  40.6            -74.0 R      <NA>   <NA>  
    ##  9 4 Av~ 45th St                  40.6            -74.0 R      <NA>   <NA>  
    ## 10 4 Av~ 53rd St                  40.6            -74.0 R      <NA>   <NA>  
    ## # ... with 1,858 more rows, and 12 more variables: route4 <chr>, route5 <chr>,
    ## #   route6 <chr>, route7 <chr>, route8 <chr>, route9 <chr>, route10 <chr>,
    ## #   route11 <chr>, entrance_type <chr>, entry <lgl>, vending <fct>,
    ## #   ADA_compliance <lgl>
…
